…
In Dean’s original case he was trying to use patient_name in a call to
dplyr::mutate(). Rather than using Vectorize() to generate a new function
in this case I would instead suggest an idiom like the following.

df <- data_frame(path = paths)

## Warning: `data_frame()` is deprecated, use `tibble()`.
## This warning is displayed once per session.

df %>% mutate(name = map_chr(path, patient_name))

## # A tibble: 200 x 2
##    path                          name       
##    <chr>                         <chr>      
##  1 some/path/abc/001.txt         abc_001.txt
##  2 another/directory/xyz/002.txt xyz_002.txt
##  3 some/path/abc/001.txt         abc_001.txt
##  4 another/directory/xyz/002.txt xyz_002.txt
##  5 some/path/abc/001.txt         abc_001.txt
##  6 another/directory/xyz/002.txt xyz_002.txt
##  7 some/path/abc/001.txt         abc_001.txt
##  8 another/directory/xyz/002.txt xyz_002.txt
##  9 some/path/abc/001.txt         abc_001.txt
## 10 another/directory/xyz/002.txt xyz_002.txt
## # … with 190 more rows
…
